Day 5 spatial intro
…
st_transform(ca_dams, crs = 4326)

## Simple feature collection with 1246 features and 24 fields
## geometry type:  POINT
## dimension:      XY
## bbox:           xmin: -124.1077 ymin: 32.6094 xmax: -114.1663 ymax: 41.987
## geographic CRS: WGS 84
## # A tibble: 1,246 x 25
##    OBJECTID Internal_I State_ID Dam_Name National_I Latitude Longitude County
##  *    <dbl>      <dbl> <chr>    <chr>    <chr>         <dbl>     <dbl> <chr> 
##  1     1001       1315 682-0    Madera ~ CA00027        37.0     -120. Madera
##  2     1002       1318 686-0    Jane, L~ CA00706        37.1     -120. Madera
##  3     1003       1319 687-0    Black H~ CA00707        37.2     -120. Madera
##  4     1004        451 69-2     Henshaw  CA00283        33.2     -117. San D~
##  5     1005       1322 693-0    Sequoia~ CA00709        36.7     -119. Fresno
##  6     1006       1324 696-0    Stinson~ CA00710        36.5     -120. Fresno
##  7     1007       1328 699-0    Giffen ~ CA00711        36.8     -119. Fresno
##  8     1008        168 7-0      Milliken CA00102        38.4     -122. Napa  
##  9     1009        169 7-3      Conn Cr~ CA00104        38.5     -122. Napa  
## 10     1010        453 70-2     Bridgep~ CA00284        38.3     -119. Mono  
## # ... with 1,236 more rows, and 17 more variables: Owner_Name <chr>,
## #   Owner_Type <chr>, Dam_Type <chr>, Year_Built <dbl>, Dam_Height <dbl>,
## #   Dam_Length <dbl>, Capacity_a <dbl>, Jurisdicti <chr>, Downstream <chr>,
## #   Condition_ <chr>, Restricted <chr>, Date_Data_ <chr>, Data_Sourc <chr>,
## #   Record_Las <chr>, Record_L_1 <chr>, Comments <chr>, geometry <POINT []>
…
